{
    "blacklistTypes": [
        282
    ],
    "listType": "whitelist",
    "whitelistTypes": [
        3414,
        282,
        7383,
        3038,
        830,
        3360,
        814,
        3039,
        3036,
        9302,
        817,
        8092,
        3582,
        816,
        821,
        3567,
        818,
        16096,
        828,
        3037,
        29345,
        8094,
        8043,
        3371,
        3041,
        29346,
        29347,
        811,
        812,
        826,
        3554,
        16115,
        813
    ]
}
